1000,
1001,
1002,
1003,
1004,
9006,
9001,
9002,
9003,
9004,
9005,
9007,
9010,
9011,
9016,
9017,
9018,
1005,
1006,
1007,
1011,
1012,
1013,
1014,
1015,
1016,
1017,
1018,
1019,
1020,
1021,
1023,
1024,
1026,
1027,
1028,
1032,
1033,
1034,
2000,
2001,
2002,
2003,
2004,
2005,
2007,
2008,
2009,
2010,
2011,
2012,
3000,
3001,
3002,
3003,
3004,
3005,
3007,
3009,
3011,
3012,
3013,
3014,
3015,
3016,
3017,
3018,
3020,
3022,
3024,
3026,
3027,
3031,
4001,
4002,
4003,
4004,
4005,
4006,
4007,
4008,
4009,
4010,
5000,
5001,
5002,
5003,
5004,
5005,
5007,
5008,
5009,
5011,
5012,
5013,
5014,
5015,
5017,
5018,
5019
