{
 "colors": [
 {
   "id": 0,
   "color":"#BEBD7F",
   "ral": 1000
 },
   {
   "id": 1,
   "color":"#C2B078",
   "ral": 1001
   },
   {
   "id": 2,
   "color":"#C6A664",
   "ral": 1002},
   {
   "id": 3,
   "color":"#E5BE01",
   "ral": 1003},
   {
   "id": 4,
   "color":"#CDA434",
   "ral": 1004},
   {
   "id": 5,
   "color":"#A5A5A5",
   "ral": 9006},
   {
   "id": 6,
   "color":"#FDF4E3",
   "ral": 9001},
   {
   "id": 7,
   "color":"#E7EBDA",
   "ral": 9002},
   {
   "id": 8,
   "color":"#F4F4F4",
   "ral": 9003},
   {
   "id": 9,
   "color":"#282828",
   "ral": 9004},
   {
   "id": 10,
   "color":"#0A0A0A",
   "ral": 9005},
   {
   "id": 11,
   "color":"#8F8F8F",
   "ral": 9007},
   {
   "id": 12,
   "color":"#FFFFFF",
   "ral": 9010},
   {
   "id": 13,
   "color":"#1C1C1C",
   "ral": 9011},
   {
   "id": 14,
   "color":"#F6F6F6",
   "ral": 9016},
   {
   "id": 15,
   "color": "#1E1E1E",
   "ral": 9017},
   {
   "id": 16,
   "color":"#D7D7D7",
   "ral": 9018},
   {
   "id": 17,
   "color":"#A98307",
   "ral": 1005},
   {
   "id": 18,
   "color":"#E4A010",
   "ral": 1006},
   {
   "id": 19,
   "color":"#DC9D00",
   "ral": 1007},
   {
   "id": 20,
   "color" : "#8A6642",
   "ral": 1011},
   {
   "id": 21,
   "color":"#C7B446",
   "ral": 1012},
   {
   "id": 22,
   "color":"#EAE6CA",
   "ral": 1013},
   {
   "id": 23,
   "color":"#E1CC4F",
   "ral": 1014},
   {
   "id": 24,
   "color":"#E6D690",
   "ral": 1015},
   {
   "id": 25,
   "color":"#EDFF21",
   "ral": 1016},
   {
   "id": 26,
   "color":"#F5D033",
   "ral": 1017},
   {
   "id": 27,
   "color":"#F8F32B",
   "ral": 1018},
   {
   "id": 28,
   "color":"#9E9764",
   "ral": 1019},
   {
   "id": 29,
   "color":"#999950",
   "ral": 1020},
   {
   "id": 30,
   "color":"#F3DA0B",
   "ral": 1021},
   {
   "id": 31,
   "color":"#FAD201",
   "ral": 1023},
   {
   "id": 32,
   "color":"#AEA04B",
   "ral": 1024},
   {
   "id": 33,
   "color":"#FFFF00",
   "ral": 1026},
   {
   "id": 34,
   "color":"#9D9101",
   "ral": 1027},
   {
   "id": 35,
   "color":"#F4A900",
   "ral": 1028},
   {
   "id": 36,
   "color":"#D6AE01",
   "ral": 1032},
   {
   "id": 37,
   "color":"#F3A505",
   "ral": 1033},
   {
   "id": 38,
   "color":"#EFA94A",
   "ral": 1034},
   {
   "id": 39,
   "color":"#ED760E",
   "ral": 2000},
   {
   "id": 40,
   "color":"#C93C20",
   "ral": 2001},
   {
   "id": 41,
   "color":"#CB2821",
   "ral": 2002},
   {
   "id": 42,
   "color":"#FF7514",
   "ral": 2003},
   {
   "id": 43,
   "color":"#F44611",
   "ral": 2004},
   {
   "id": 44,
   "color":"#FF2301",
   "ral": 2005},
   {
   "id": 45,
   "color":"#FFA420",
   "ral": 2007},
   {
   "id": 46,
   "color":"#F75E25",
   "ral": 2008},
   {
   "id": 47,
   "color":"#F54021",
   "ral": 2008},
   {
   "id": 48,
   "color":"#D84B20",
   "ral": 2009},
   {
   "id": 49,
   "color":"#EC7C26",
   "ral": 2010},
   {
   "id": 50,
   "color":"#E55137",
   "ral": 2011},
   {
   "id": 51,
   "color":"#AF2B1E",
   "ral": 2012},
   {
   "id": 52,
   "color":"#A52019",
   "ral": 3000},
   {
   "id": 53,
   "color":"#A2231D",
   "ral": 3001},
   {
   "id": 54,
   "color":"#9B111E",
   "ral": 3002},
   {
   "id": 55,
   "color":"#75151E",
   "ral": 3003},
   {
   "id": 56,
   "color":"#5E2129",
   "ral": 3004},
   {
   "id": 57,
   "color":"#412227",
   "ral": 3005},
   {
   "id": 58,
   "color":"#642424",
   "ral": 3007},
   {
   "id": 59,
   "color":"#781F19",
   "ral": 3009},
   {
   "id": 60,
   "color":"#C1876B",
   "ral": 3011},
   {
   "id": 61,
   "color":"#A12312",
   "ral": 3012},
   {
   "id": 62,
   "color":"#D36E70",
   "ral": 3014},
   {
   "id": 63,
   "color":"#EA899A",
   "ral": 3015},
   {
   "id": 64,
   "color":"#B32821",
   "ral": 3016},
   {
   "id": 65,
   "color":"#E63244",
   "ral": 3017},
   {
   "id": 66,
   "color":"#D53032",
   "ral": 3018},
   {
   "id": 67,
   "color":"#CC0605",
   "ral": 3020},
   {
   "id": 68,
   "color":"#D95030",
   "ral": 3022},
   {
   "id": 69,
   "color":"#F80000",
   "ral": 3024},
   {
   "id": 70,
   "color":"#FE0000",
   "ral": 3026},
   {
   "id": 71,
   "color":"#C51D34",
   "ral": 3027},
   {
   "id": 72,
   "color":"#B32428",
   "ral": 3031},
   {
   "id": 73,
   "color":"#6D3F5B",
   "ral": 4001},
   {
   "id": 74,
   "color":"#922B3E",
   "ral": 4002},
   {
   "id": 75,
   "color":"#DE4C8A",
   "ral": 4003},
   {
   "id": 76,
   "color":"#641C34",
   "ral": 4004},
   {
   "id": 77,
   "color":"#6C4675",
   "ral": 4005},
   {
   "id": 78,
   "color":"#A03472",
   "ral": 4006},
   {
   "id": 79,
   "color":"#4A192C",
   "ral": 4007},
   {
   "id": 80,
   "color":"#924E7D",
   "ral": 4008},
   {
   "id": 81,
   "color":"#A18594",
   "ral": 4009},
   {
   "id": 82,
   "color":"#CF3476",
   "ral": 4010},
   {
   "id": 83,
   "color":"#354D73",
   "ral": 5000},
   {
   "id": 84,
   "color":"#1F3438",
   "ral": 5001},
   {
   "id": 85,
   "color":"#20214F",
   "ral": 5002},
   {
   "id": 86,
   "color":"#1D1E33",
   "ral": 5003},
   {
   "id": 87,
   "color":"#18171C",
   "ral": 5004},
   {
   "id": 88,
   "color":"#1E2460",
   "ral": 5005},
   {
   "id": 89,
   "color":"#3E5F8A",
   "ral": 5007},
   {
   "id": 90,
   "color":"#26252D",
   "ral": 5008},
   {
   "id": 91,
   "color":"#025669",
   "ral": 5009},
   {
   "id": 92,
   "color":"#231A24",
   "ral": 5011},
   {
   "id": 93,
   "color":"#3B83BD",
   "ral": 5012},
   {
   "id": 94,
   "color":"#1E213D",
   "ral": 5013},
   {
   "id": 95,
   "color":"#606E8C",
   "ral": 5014},
   {
   "id": 96,
   "color":"#2271B3",
   "ral": 5015},
   {
   "id": 97,
   "color":"#063971",
   "ral": 5017},
   {
   "id": 98,
   "color":"#3F888F",
   "ral": 5018},
   {
   "id": 99,
   "color":"#1B5583",
   "ral": 5019} 
]
    }
    
    